Vignette Title
…
consulta <- fipe_modelo(cod_ref = 215, cod_marca = 23) %>% 
  filter(str_detect(modelo, "ONIX")) %>%
  mutate(tem = map(cod_modelo, ~fipe_ano(215, 23, .x))) %>% 
  unnest() %>% 
  mutate(temp = pmap(list(215, 23, cod_modelo, cod_ano), fipe)) %>% 
  select(temp) %>% 
  unnest() %>% 
  mutate(ano = fct_relevel(ano, "0 km", after = Inf))

consulta

## # A tibble: 53 x 7
##    cod_fipe ref        marca     modelo             ano   combustivel valor
##    <chr>    <date>     <chr>     <chr>              <fct> <chr>       <dbl>
##  1 004451-2 2017-07-01 GM - Che~ ONIX  Lollapalooz~ 2014  Gasolina    33297
##  2 004471-7 2017-07-01 GM - Che~ ONIX HATCH ACTIV ~ 0 km  Gasolina    63638
##  3 004471-7 2017-07-01 GM - Che~ ONIX HATCH ACTIV ~ 2018  Gasolina    57725
##  4 004471-7 2017-07-01 GM - Che~ ONIX HATCH ACTIV ~ 2017  Gasolina    55845
##  5 004472-5 2017-07-01 GM - Che~ ONIX HATCH ACTIV ~ 0 km  Gasolina    59529
##  6 004472-5 2017-07-01 GM - Che~ ONIX HATCH ACTIV ~ 2018  Gasolina    54202
##  7 004472-5 2017-07-01 GM - Che~ ONIX HATCH ACTIV ~ 2017  Gasolina    52451
##  8 004460-1 2017-07-01 GM - Che~ ONIX HATCH EFFECT~ 0 km  Gasolina    52192
##  9 004460-1 2017-07-01 GM - Che~ ONIX HATCH EFFECT~ 2018  Gasolina    48278
## 10 004460-1 2017-07-01 GM - Che~ ONIX HATCH EFFECT~ 2017  Gasolina    46300
## # ... with 43 more rows
…
