Consulta de preços da Tabela FIPE • fipe
…
The function fipe_vehicle provide acces to historial data of brazilian cars

library(fipe)
library(ggplot2)
library(dplyr)

bmw_x6  <- fipe_vehicle(
  model = "x6 ", 
  make = "bmw", 
  year = c(0, 2017:2015),
  date = seq.Date(as.Date("2013-01-01"), as.Date("2017-12-01"), by = "4 months")
)

bmw_x6 
#> # A tibble: 90 x 5
#>    model                             make  year  date        price
#>    <chr>                             <chr> <fct> <date>      <dbl>
#>  1 X6 M 4.4 4x4 V8 32V Bi-Turbo Aut. BMW   0 km  2013-01-01 550000
#>  2 X6 M 4.4 4x4 V8 32V Bi-Turbo Aut. BMW   0 km  2013-05-01 494950
#>  3 X6 M 4.4 4x4 V8 32V Bi-Turbo Aut. BMW   0 km  2013-09-01 504580
#>  4 X6 M 4.4 4x4 V8 32V Bi-Turbo Aut. BMW   0 km  2014-01-01 515000
#>  5 X6 M 4.4 4x4 V8 32V Bi-Turbo Aut. BMW   0 km  2014-05-01 524900
#>  6 X6 M 4.4 4x4 V8 32V Bi-Turbo Aut. BMW   0 km  2014-09-01 524750
#>  7 X6 M 4.4 4x4 V8 32V Bi-Turbo Aut. BMW   0 km  2015-01-01 517157
#>  8 X6 M 4.4 4x4 V8 32V Bi-Turbo Aut. BMW   0 km  2015-05-01 502911
#>  9 X6 M 4.4 4x4 V8 32V Bi-Turbo Aut. BMW   0 km  2015-09-01 529310
#> 10 X6 M 4.4 4x4 V8 32V Bi-Turbo Aut. BMW   0 km  2016-01-01 529937
#> # ... with 80 more rows
…
